<svg 
 xmlns="http://www.w3.org/2000/svg"
 xmlns:xlink="http://www.w3.org/1999/xlink"
 width="30px" height="30px">
<path fill-rule="evenodd"  fill="rgb(249, 217, 1)"
 d="M25.608,4.387 C19.759,-1.465 10.242,-1.465 4.392,4.387 C2.340,6.440 0.937,9.019 0.333,11.846 C-0.255,14.599 -0.062,17.451 0.889,20.093 C1.004,20.411 1.354,20.575 1.671,20.461 C1.988,20.346 2.153,19.996 2.038,19.679 C1.164,17.251 0.987,14.631 1.527,12.101 C2.081,9.506 3.371,7.137 5.256,5.250 C10.628,-0.125 19.371,-0.125 24.744,5.250 C27.303,7.810 28.735,11.214 28.777,14.832 C28.819,18.445 27.473,21.875 24.989,24.491 C24.959,24.522 24.930,24.553 24.901,24.584 C24.849,24.639 24.798,24.695 24.744,24.748 C19.371,30.123 10.628,30.123 5.256,24.748 C5.227,24.719 5.199,24.691 5.172,24.661 C5.170,24.605 5.169,24.549 5.169,24.495 C5.169,24.371 5.171,24.249 5.176,24.127 C5.177,24.086 5.180,24.046 5.182,24.005 C5.186,23.924 5.190,23.842 5.196,23.762 C5.200,23.714 5.205,23.666 5.209,23.618 C5.216,23.545 5.222,23.473 5.230,23.400 C5.235,23.349 5.243,23.299 5.249,23.248 C5.257,23.179 5.266,23.110 5.276,23.042 C5.284,22.989 5.293,22.938 5.302,22.886 C5.312,22.819 5.323,22.752 5.335,22.686 C5.345,22.634 5.356,22.582 5.367,22.530 C5.380,22.465 5.393,22.399 5.407,22.335 C5.419,22.282 5.432,22.230 5.444,22.178 C5.460,22.114 5.475,22.051 5.491,21.988 C5.505,21.935 5.520,21.883 5.534,21.832 C5.552,21.769 5.569,21.707 5.587,21.645 C5.603,21.593 5.620,21.541 5.636,21.490 C5.656,21.429 5.675,21.367 5.696,21.307 C5.713,21.256 5.732,21.205 5.750,21.154 C5.772,21.094 5.794,21.033 5.816,20.974 C5.836,20.923 5.856,20.873 5.876,20.822 C5.900,20.763 5.924,20.704 5.949,20.646 C5.969,20.596 5.991,20.546 6.013,20.497 C6.039,20.439 6.065,20.381 6.092,20.323 C6.115,20.274 6.138,20.225 6.162,20.177 C6.190,20.120 6.218,20.063 6.247,20.006 C6.272,19.959 6.296,19.911 6.322,19.864 C6.352,19.808 6.382,19.751 6.413,19.696 C6.439,19.649 6.466,19.602 6.493,19.556 C6.524,19.501 6.557,19.446 6.590,19.391 C6.618,19.346 6.646,19.300 6.675,19.255 C6.708,19.200 6.743,19.147 6.778,19.094 C6.807,19.049 6.837,19.005 6.867,18.960 C6.903,18.907 6.939,18.855 6.977,18.803 C7.007,18.760 7.038,18.716 7.070,18.673 C7.108,18.621 7.147,18.570 7.185,18.519 C7.218,18.477 7.250,18.435 7.283,18.393 C7.323,18.343 7.364,18.293 7.405,18.243 C7.438,18.202 7.471,18.161 7.506,18.121 C7.548,18.072 7.591,18.023 7.634,17.975 C7.669,17.935 7.703,17.896 7.739,17.857 C7.783,17.809 7.828,17.761 7.873,17.714 C7.909,17.676 7.945,17.638 7.982,17.601 C8.028,17.554 8.076,17.508 8.123,17.462 C8.160,17.425 8.196,17.389 8.234,17.353 C8.283,17.308 8.333,17.262 8.382,17.218 C8.420,17.183 8.457,17.148 8.496,17.115 C8.547,17.070 8.599,17.026 8.652,16.981 C8.690,16.949 8.728,16.916 8.766,16.885 C8.821,16.841 8.876,16.798 8.931,16.755 C8.970,16.724 9.007,16.694 9.046,16.664 C9.104,16.620 9.164,16.578 9.223,16.535 C9.260,16.508 9.297,16.480 9.335,16.453 C9.400,16.408 9.467,16.363 9.533,16.319 C9.566,16.297 9.599,16.274 9.631,16.253 C9.718,16.196 9.807,16.141 9.896,16.088 C9.910,16.079 9.923,16.070 9.937,16.062 C10.040,16.000 10.145,15.941 10.250,15.882 C10.286,15.863 10.323,15.843 10.360,15.824 C10.430,15.787 10.500,15.749 10.571,15.713 C10.617,15.690 10.664,15.669 10.710,15.646 C10.768,15.618 10.826,15.589 10.885,15.562 C11.992,16.620 13.468,17.219 15.000,17.219 C16.532,17.219 18.009,16.620 19.116,15.562 C21.276,16.562 23.044,18.357 24.004,20.540 C24.139,20.848 24.500,20.989 24.808,20.853 C25.117,20.717 25.257,20.356 25.121,20.048 C24.071,17.661 22.243,15.753 19.930,14.601 C20.601,13.616 20.964,12.452 20.964,11.252 C20.964,7.962 18.289,5.285 15.000,5.285 C14.663,5.285 14.389,5.559 14.389,5.896 C14.389,6.233 14.663,6.507 15.000,6.507 C17.616,6.507 19.743,8.636 19.743,11.252 C19.743,12.422 19.308,13.548 18.519,14.424 L18.519,14.424 C17.618,15.424 16.336,15.997 15.000,15.997 C13.664,15.997 12.382,15.424 11.481,14.424 C11.481,14.424 11.481,14.424 11.481,14.424 C10.692,13.548 10.257,12.422 10.257,11.252 C10.257,9.975 10.757,8.777 11.664,7.879 C11.904,7.641 11.906,7.255 11.669,7.015 C11.432,6.775 11.045,6.773 10.806,7.010 C9.665,8.139 9.036,9.646 9.036,11.252 C9.036,12.451 9.398,13.614 10.069,14.598 C10.063,14.601 10.057,14.604 10.051,14.607 C10.003,14.631 9.957,14.657 9.909,14.681 C9.837,14.718 9.765,14.755 9.693,14.795 C9.643,14.822 9.593,14.851 9.543,14.879 C9.477,14.917 9.410,14.954 9.344,14.994 C9.293,15.024 9.243,15.055 9.193,15.086 C9.129,15.125 9.066,15.164 9.004,15.204 C8.954,15.237 8.903,15.270 8.853,15.304 C8.793,15.344 8.733,15.384 8.673,15.426 C8.623,15.460 8.574,15.496 8.525,15.531 C8.467,15.573 8.409,15.615 8.352,15.658 C8.303,15.695 8.254,15.732 8.206,15.769 C8.150,15.813 8.095,15.857 8.040,15.901 C7.992,15.940 7.945,15.979 7.898,16.018 C7.844,16.063 7.790,16.109 7.737,16.155 C7.691,16.195 7.645,16.235 7.600,16.276 C7.548,16.323 7.496,16.371 7.445,16.419 C7.400,16.460 7.356,16.502 7.312,16.544 C7.261,16.593 7.211,16.643 7.161,16.693 C7.119,16.736 7.077,16.779 7.035,16.822 C6.986,16.873 6.937,16.925 6.889,16.977 C6.848,17.021 6.808,17.064 6.768,17.108 C6.719,17.162 6.673,17.217 6.625,17.272 C6.587,17.315 6.549,17.359 6.511,17.403 C6.464,17.461 6.418,17.519 6.371,17.578 C6.336,17.621 6.300,17.664 6.267,17.708 C6.217,17.771 6.170,17.835 6.123,17.899 C6.093,17.940 6.062,17.979 6.033,18.020 C5.972,18.103 5.914,18.188 5.856,18.273 C5.841,18.296 5.825,18.318 5.810,18.340 C5.738,18.447 5.668,18.556 5.600,18.666 C5.576,18.704 5.554,18.743 5.531,18.781 C5.487,18.854 5.443,18.927 5.401,19.002 C5.374,19.048 5.349,19.095 5.323,19.142 C5.286,19.209 5.249,19.276 5.213,19.344 C5.187,19.394 5.162,19.446 5.136,19.496 C5.103,19.562 5.070,19.627 5.038,19.694 C5.012,19.746 4.988,19.799 4.964,19.853 C4.933,19.918 4.903,19.983 4.874,20.050 C4.851,20.104 4.828,20.159 4.805,20.214 C4.777,20.280 4.750,20.345 4.724,20.412 C4.701,20.468 4.681,20.524 4.659,20.580 C4.634,20.647 4.609,20.713 4.586,20.780 C4.566,20.837 4.546,20.894 4.527,20.952 C4.504,21.019 4.482,21.087 4.460,21.154 C4.443,21.212 4.425,21.270 4.407,21.328 C4.387,21.397 4.368,21.465 4.349,21.534 C4.332,21.593 4.316,21.651 4.301,21.709 C4.284,21.779 4.266,21.849 4.250,21.920 C4.236,21.978 4.222,22.037 4.209,22.096 C4.193,22.167 4.179,22.238 4.164,22.310 C4.153,22.369 4.141,22.427 4.130,22.486 C4.117,22.559 4.105,22.633 4.093,22.707 C4.083,22.764 4.073,22.822 4.065,22.881 C4.054,22.957 4.045,23.033 4.035,23.109 C4.028,23.166 4.020,23.223 4.014,23.279 C4.005,23.359 3.999,23.440 3.992,23.520 C3.987,23.574 3.982,23.627 3.977,23.681 C3.971,23.771 3.967,23.861 3.963,23.952 C3.960,23.997 3.957,24.041 3.955,24.087 C3.950,24.222 3.948,24.358 3.948,24.495 C3.948,24.642 3.953,24.782 3.959,24.936 C3.960,24.972 3.965,25.006 3.972,25.040 C3.972,25.042 3.973,25.045 3.973,25.048 C3.981,25.081 3.992,25.113 4.004,25.144 C4.006,25.147 4.007,25.150 4.008,25.153 C4.021,25.184 4.037,25.213 4.055,25.240 C4.057,25.244 4.059,25.247 4.062,25.251 C4.079,25.278 4.100,25.303 4.122,25.327 C4.124,25.329 4.125,25.331 4.126,25.333 L4.207,25.419 C4.268,25.484 4.328,25.549 4.392,25.612 C7.316,28.538 11.158,30.001 15.000,30.001 C18.841,30.001 22.683,28.538 25.607,25.612 C25.671,25.549 25.731,25.484 25.793,25.419 L25.873,25.333 C28.579,22.486 30.044,18.752 29.998,14.819 C29.952,10.878 28.393,7.174 25.608,4.387 L25.608,4.387 Z"/>
</svg>